Extract raster values with point buffers or polygons — extract_at • chopin
…
  bandwidth = 1e5
)
#> ℹ Input is a character. Trying to read with sf.
#> Reading layer `nc.gpkg' from data source 
#>   `/home/runner/work/_temp/Library/sf/gpkg/nc.gpkg' using driver `GPKG'
#> Simple feature collection with 100 features and 14 fields
#> Geometry type: MULTIPOLYGON
#> Dimension:     XY
#> Bounding box:  xmin: -84.32385 ymin: 33.88199 xmax: -75.45698 ymax: 36.58965
#> Geodetic CRS:  NAD27
#> Kernel function [ epanechnikov ] is applied to calculate weights...
#> Switch sf class to terra...
#> Warning: Point geometries are acceptable for kernel weighting. Convert to points...
#> (Note: inside = TRUE is applied)
#> # A tibble: 100 × 2
#>    NAME      value
#>    <chr>     <dbl>
#>  1 Alamance   1.85
#>  2 Alexander  1.81
#>  3 Alleghany  1.97
#>  4 Anson      2.06
#>  5 Ashe       1.95
#>  6 Avery      2.08
#>  7 Beaufort   1.99
#>  8 Bertie     1.86
#>  9 Bladen     2.08
#> 10 Brunswick  1.92
#> # ℹ 90 more rows
…
)
#> Input is a character. Attempt to read it with terra::rast...
#> ℹ Input is a character. Trying to read with sf.
#> Reading layer `nc.gpkg' from data source 
#>   `/home/runner/work/_temp/Library/sf/gpkg/nc.gpkg' using driver `GPKG'
#> Simple feature collection with 100 features and 14 fields
#> Geometry type: MULTIPOLYGON
#> Dimension:     XY
#> Bounding box:  xmin: -84.32385 ymin: 33.88199 xmax: -75.45698 ymax: 36.58965
#> Geodetic CRS:  NAD27
#> Kernel function [ epanechnikov ] is applied to calculate weights...
#> Switch sf class to terra...
#> Warning: Point geometries are acceptable for kernel weighting. Convert to points...
#> (Note: inside = TRUE is applied)
#> # A tibble: 100 × 2
#>    NAME       value
#>    <chr>      <dbl>
#>  1 Alamance   189. 
#>  2 Alexander  358. 
#>  3 Alleghany  877. 
#>  4 Anson      106. 
#>  5 Ashe       981. 
#>  6 Avery     1086. 
#>  7 Beaufort    11.8
#>  8 Bertie      18.9
#>  9 Bladen      26.7
#> 10 Brunswick   11.7
#> # ℹ 90 more rows
…
