Calculate Sum of Exponentially Decaying Contributions (SEDC) covariates — summarize_sedc • chopin
…
vals <- c("val1", "val2")
summarize_sedc(pnt_from, pnt_to, "NAME", 1e5, 2e5, vals)
#> # A tibble: 100 × 3
#>    NAME      val1_sedc val2_sedc
#>    <chr>         <dbl>     <dbl>
#>  1 Alamance       66.3      6.71
#>  2 Alexander      98.0     11.7 
#>  3 Alleghany     135.       8.57
#>  4 Anson          50.0      5.23
#>  5 Ashe          143.       8.42
#>  6 Avery          76.1      8.76
#>  7 Beaufort       58.8      6.29
#>  8 Bertie         70.1      7.85
#>  9 Bladen         79.5      6.82
#> 10 Brunswick      54.3      5.34
#> # ℹ 90 more rows
…
